YOUR NAME - DANL200-HW5-MATUSIAK-JOCELYN.qmd
…
half_seconds_remaining is greater than 120.

Answer:

library(dplyr)

result <- NFL2022_stuffs %>%
  filter(wp > 0.20 & wp < 0.75 & down <= 2 & half_seconds_remaining > 120) %>%
  group_by(posteam) %>%
  summarize(mean_pass = mean(pass, na.rm = TRUE))

print(result)

# A tibble: 32 × 2
   posteam mean_pass
   <chr>       <dbl>
 1 ARI         0.553
 2 ATL         0.4  
 3 BAL         0.520
 4 BUF         0.604
 5 CAR         0.458
 6 CHI         0.420
 7 CIN         0.657
 8 CLE         0.491
 9 DAL         0.474
10 DEN         0.493
# ℹ 22 more rows
…
passers_data <- NFL2022_stuffs_EPA %>%
  filter(passer %in% c("J.Allen", "P.Mahomes"))

passers_mean <- passers_data %>%
  group_by(week, passer) %>%
  summarise(mean_epa = mean(epa, na.rm = TRUE))

passers_wide <- passers_mean %>%
  pivot_wider(names_from = passer, values_from = mean_epa)

passers_wide$epa_difference <- passers_wide$`J.Allen` - passers_wide$`P.Mahomes`

print(passers_wide)

# A tibble: 22 × 4
# Groups:   week [22]
    week J.Allen P.Mahomes epa_difference
   <dbl>   <dbl>     <dbl>          <dbl>
 1     1   0.530    0.698         -0.169 
 2     2   0.487    0.148          0.339 
 3     3   0.169    0.246         -0.0763
 4     4   0.191    0.271         -0.0803
 5     5   0.627    0.302          0.325 
 6     6   0.307    0.133          0.173 
 7     7  NA        0.701         NA     
 8     8   0.224   NA             NA     
 9     9  -0.208    0.0965        -0.304 
10    10   0.161    0.589         -0.429 
# ℹ 12 more rows
…
summary_data <- NFL2022_stuffs_EPA %>%
  group_by(posteam, passer) %>%
  summarise(mean_epa = mean(epa, na.rm = TRUE),
            n_pass = n())

quantile_threshold <- quantile(summary_data$n_pass, 0.75)

top_passers <- summary_data %>%
  filter(n_pass >= quantile_threshold) %>%
  top_n(10, wt = mean_epa)  

print(top_passers)

# A tibble: 29 × 4
# Groups:   posteam [29]
   posteam passer     mean_epa n_pass
   <chr>   <chr>         <dbl>  <int>
 1 ARI     K.Murray     0.0163    465
 2 ATL     M.Mariota    0.0251    370
 3 BAL     L.Jackson    0.0549    398
 4 BUF     J.Allen      0.172     785
 5 CHI     J.Fields    -0.0455    469
 6 CIN     J.Burrow     0.153     854
 7 CLE     J.Brissett   0.0912    445
 8 DAL     D.Prescott   0.147     529
 9 DEN     R.Wilson    -0.0163    609
10 DET     J.Goff       0.171     661
# ℹ 19 more rows
…
